<svg id="_5a0743937244fc0001c31202_Linder_Logo_C" data-name="5a0743937244fc0001c31202_Linder_Logo_C" xmlns="http://www.w3.org/2000/svg" width="143.313" height="25.445" viewBox="0 0 143.313 25.445">
  <path id="Path_104" data-name="Path 104" d="M465.28,195.355a.722.722,0,0,1,.722-.634h4.613a.7.7,0,0,1,.7.634l0,2.111h-6.032l0-2.111m0,7.894v-1.067h13.108v-8.795A4.285,4.285,0,0,0,474.2,189.2H461.969a4.251,4.251,0,0,0-4.19,4.188v12.344a4.163,4.163,0,0,0,4.19,4.225h16.42v-5.977h-12.4A.71.71,0,0,1,465.28,203.249Z" transform="translate(-353.78 -184.57)" fill="#fff"/>
  <path id="Path_105" data-name="Path 105" d="M334.429,193.9l-4.406,0c-.3,0-.817-.29-.817-1.234V187.7c0-.9.52-1.218.817-1.218l4.406,0V193.9m8.143,7.3V175.816h-8.143v4.629c-5.905,0-13.172-.986-13.172,6.19v4.335c0,2.2-.25,5.057.224,7.191.79,3.564,5.369,3.077,8.266,3.077h9.971Z" transform="translate(-264.435 -175.816)" fill="#fff"/>
  <path id="Path_106" data-name="Path 106" d="M540.339,189.087V196.9h-8.33a.722.722,0,0,0-.731.718v12.232h-7.386V194.017c0-2.526,2.878-4.93,5.3-4.93h11.146" transform="translate(-397.026 -184.497)" fill="#fff"/>
  <path id="Path_107" data-name="Path 107" d="M411.129,193.474V210.04l-8.248,0,.081-12.011a.952.952,0,0,0-.742-.928l-4.042-.011v12.943l-8.363,0V189.284H406.9a4.355,4.355,0,0,1,4.226,4.19" transform="translate(-309.323 -184.626)" fill="#fff"/>
  <path id="Path_108" data-name="Path 108" d="M275.205,193.278v16.568l-8.246,0,.078-12.011a.949.949,0,0,0-.741-.927l-4.042-.011v12.944l-8.362,0V189.088H270.98a4.356,4.356,0,0,1,4.225,4.19" transform="translate(-220.413 -184.498)" fill="#fff"/>
  <rect id="Rectangle_128" data-name="Rectangle 128" width="7.667" height="20.758" transform="translate(23.589 4.59)" fill="#fff"/>
  <rect id="Rectangle_129" data-name="Rectangle 129" width="7.667" height="2.841" transform="translate(23.589 0)" fill="#fff"/>
  <path id="Path_109" data-name="Path 109" d="M157.1,175.816h7.7v17.158a.73.73,0,0,0,.729.729h13.033v7.461H162.1c-2.487,0-5-2.754-5-5.189V175.816" transform="translate(-157.097 -175.816)" fill="#fff"/>
</svg>
