<svg id="Group_107" data-name="Group 107" xmlns="http://www.w3.org/2000/svg" width="136.875" height="84.678" viewBox="0 0 136.875 84.678">
  <path id="Path_64" data-name="Path 64" d="M119.917,130.753,128.565,81.6H149.47l-1.73,9.83H135.959l-1.589,9.043h11.32l-1.73,9.83H132.64l-1.866,10.615h12.564l-1.73,9.831" transform="translate(-113.47 -81.605)" fill="#fff"/>
  <path id="Path_65" data-name="Path 65" d="M202.394,154.512l-.516,3.152h.077c.9-1.936,3-3.873,4.94-3.873,2.909,0,5.206,1.847,4.645,5.271l-3.383,20.68h-6.168l2.949-18.022c.114-1.171-.112-2.164-1.291-2.072-1.091.045-1.791.765-2.007,2.072l-2.949,18.022h-6.167l4.131-25.23" transform="translate(-162.745 -130.594)" fill="#fff"/>
  <path id="Path_66" data-name="Path 66" d="M256.536,163.456l.255-1.666c.269-1.76.929-3.379,2.607-3.376,1.528,0,1.756,1.669,1.617,2.571l-.379,2.477m5.2,4.739L266.941,161c.836-5.45-2.711-7.349-6.855-7.31-4.589.037-8.306,2.146-9.3,8.634l-1.577,10.27c-.886,5.765,2.515,7.889,6.772,7.849,5.156-.081,8.52-3.049,9.218-9.534l-5.888-.011c-.438,2.115-.58,4.5-2.758,4.364-1.291-.089-1.632-1.264-1.42-2.661l.678-4.414Z" transform="translate(-201.116 -130.522)" fill="#fff"/>
  <path id="Path_67" data-name="Path 67" d="M309.7,154.172,309.07,158h.083c1.171-2.7,3.053-4.552,5.727-4.552l-1.325,8.107a9.163,9.163,0,0,0-1.914-.178c-1.826,0-2.621.4-3.08,2.478L306.023,179.4h-6.444l4.12-25.229Z" transform="translate(-235.397 -130.363)" fill="#fff"/>
  <path id="Path_68" data-name="Path 68" d="M349,149.552l-.365,2.387c-.3,1.938-.057,3.649,1.954,3.649,1.471,0,2.374-1.668,2.638-3.381.435-2.837-1.268-3.917-2.727-5.179a15.145,15.145,0,0,1-4.1-4.416,10.562,10.562,0,0,1-.8-6.757c.974-6.352,4.522-9.6,9.407-9.6,5.5,0,7.592,4.6,6.332,10.948h-5.818c.232-1.981.719-4.685-1.337-4.866-1.272-.133-2.167.767-2.537,2.254a3.815,3.815,0,0,0,1.269,4.145c2.08,1.89,3.946,3.063,5.157,4.775s1.728,3.963,1.1,8.062c-.992,6.489-4.418,10.094-9.662,10.094-5.781,0-7.6-4.054-6.92-8.516l.554-3.6" transform="translate(-264.497 -111.909)" fill="#fff"/>
  <path id="Path_69" data-name="Path 69" d="M404.294,172.188h.074l4.595-16.308h5.827l-7.136,21.579c-2.563,6.848-3.353,12.163-9.847,12.163-1.047,0-1.72-.224-2.32-.224l.832-5.317a9.931,9.931,0,0,1,1.129.181A1.762,1.762,0,0,0,399.434,183a27.194,27.194,0,0,0-.006-4.278l-.581-22.841h5.973" transform="translate(-300.483 -132.011)" fill="#fff"/>
  <path id="Path_70" data-name="Path 70" d="M459.124,162.018c.112-1.717.45-3.482-1.42-3.482a2.188,2.188,0,0,0-2.264,2.124,2.5,2.5,0,0,0,1.414,2.577c3.457,2.123,7.346,3.345,6.444,9.356-.847,5.647-4.69,8.044-8.981,8.044-4.618,0-7.482-2.441-6.346-8.542h5.571c-.335,1.763-.237,3.8,1.526,3.8a2.434,2.434,0,0,0,2.446-2.4,2.372,2.372,0,0,0-.476-1.943c-2.12-1.535-5.221-2.621-6.669-5.2a7.117,7.117,0,0,1-.756-4.746c.821-5.47,4.693-7.82,8.763-7.82,4.256,0,7.273,2.621,6.213,8.228" transform="translate(-335.934 -130.593)" fill="#fff"/>
  <path id="Path_71" data-name="Path 71" d="M236.486,173.8c.112,0,.245-.056.245.083-.935.393-1.869.79-2.806,1.183q-2.167.943-4.339,1.89-1.66.734-3.322,1.472c-4.027,1.751-8.016,3.617-11.98,5.525-4.738,2.276-9.446,4.539-14.152,6.83q-4.5,2.3-9.009,4.586-3.274,1.68-6.548,3.364c-6.221,3.27-12.445,6.648-18.612,10.047-5.172,2.848-10.262,5.81-15.4,8.764q-3.241,1.9-6.489,3.8a11.526,11.526,0,0,1-2.031-.121c-1.5.022-2.982.262-4.424.422-2.411.266-4.765.777-7.128,1.118-3.665.522-7.293,1.278-10.889,2q-7.043,1.431-14.088,2.867-2.831.6-5.659,1.205v-.079h.165c1-.428,2.007-.85,3.01-1.274q3.689-1.513,7.376-3.029,11.6-4.693,23.192-9.392,12.217-4.933,24.432-9.86,21.583-8.641,43.165-17.283l35.29-14.125" transform="translate(-99.856 -144.168)" fill="#fff"/>
  <path id="Path_72" data-name="Path 72" d="M497.068,221.813a3.053,3.053,0,1,1,3.06,3.06,3.05,3.05,0,0,1-3.06-3.06m5.57,0a2.517,2.517,0,1,0-2.51,2.526A2.511,2.511,0,0,0,502.638,221.813Zm-3.16.2v1.553h-.559v-3.59h1.161c.658,0,1.34.179,1.34.991a.829.829,0,0,1-.732.836v.017c.5.1.554.316.609.707a5.078,5.078,0,0,0,.212,1.039h-.715c-.04-.2-.1-.433-.121-.642a1.373,1.373,0,0,0-.2-.763c-.138-.148-.324-.131-.52-.148Zm.594-.559c.527-.017.65-.235.65-.511s-.123-.406-.569-.406h-.675v.917Z" transform="translate(-369.422 -174.69)" fill="#fff"/>
</svg>
