<svg id="Group_15" data-name="Group 15" xmlns="http://www.w3.org/2000/svg" width="69.165" height="38.458" viewBox="0 0 69.165 38.458">
  <path id="Path_31" data-name="Path 31" d="M517.279,318.738a1.01,1.01,0,0,1,.409.406,1.1,1.1,0,0,1,0,1.094,1.024,1.024,0,0,1-.4.406,1.087,1.087,0,0,1-1.086,0,1.027,1.027,0,0,1-.407-.406,1.112,1.112,0,0,1-.145-.544,1.1,1.1,0,0,1,.149-.549,1.008,1.008,0,0,1,.408-.406,1.085,1.085,0,0,1,1.074,0m-1.18-.187a1.22,1.22,0,0,0-.49.485,1.319,1.319,0,0,0,0,1.31,1.222,1.222,0,0,0,.485.485,1.31,1.31,0,0,0,1.3,0,1.209,1.209,0,0,0,.483-.485,1.319,1.319,0,0,0,0-1.31,1.2,1.2,0,0,0-.488-.485,1.308,1.308,0,0,0-1.287,0m.3,1.868v-.6h.132a.274.274,0,0,1,.18.048,1.253,1.253,0,0,1,.237.328l.127.222h.275l-.171-.276a1.489,1.489,0,0,0-.208-.28.371.371,0,0,0-.117-.075.434.434,0,0,0,.29-.129.378.378,0,0,0,.108-.27.361.361,0,0,0-.066-.207.345.345,0,0,0-.177-.137,1.18,1.18,0,0,0-.359-.039h-.484v1.412Zm0-1.224h.259a.693.693,0,0,1,.228.025.2.2,0,0,1,.13.188.194.194,0,0,1-.072.157.437.437,0,0,1-.27.06H516.4v-.43Z" transform="translate(-448.885 -282.545)" fill="rgba(0,0,0,0.35)"/>
  <path id="Path_32" data-name="Path 32" d="M517.279,167.907a1.009,1.009,0,0,1,.409.406,1.1,1.1,0,0,1,0,1.094,1.024,1.024,0,0,1-.4.406,1.088,1.088,0,0,1-1.086,0,1.029,1.029,0,0,1-.407-.406,1.114,1.114,0,0,1-.145-.544,1.1,1.1,0,0,1,.149-.55,1.007,1.007,0,0,1,.408-.406,1.085,1.085,0,0,1,1.074,0m-1.18-.187a1.217,1.217,0,0,0-.49.485,1.319,1.319,0,0,0,0,1.31,1.222,1.222,0,0,0,.485.485,1.311,1.311,0,0,0,1.3,0,1.211,1.211,0,0,0,.483-.485,1.319,1.319,0,0,0,0-1.31,1.2,1.2,0,0,0-.488-.485,1.3,1.3,0,0,0-1.287,0m.3,1.868v-.6h.132a.278.278,0,0,1,.18.048,1.268,1.268,0,0,1,.237.328l.127.222h.275l-.171-.276a1.487,1.487,0,0,0-.208-.28.371.371,0,0,0-.117-.075.435.435,0,0,0,.29-.129.378.378,0,0,0,.108-.269.361.361,0,0,0-.066-.207.346.346,0,0,0-.177-.137,1.173,1.173,0,0,0-.359-.039h-.484v1.412Zm0-1.224h.259a.689.689,0,0,1,.228.025.2.2,0,0,1,.13.188.194.194,0,0,1-.072.157.437.437,0,0,1-.27.06H516.4v-.43Z" transform="translate(-448.885 -155.393)" fill="rgba(0,0,0,0.35)"/>
  <path id="Path_33" data-name="Path 33" d="M453.868,232.922c0,3.209-.992,5.475-2.19,5.475s-2.19-2.267-2.19-5.475c0-3.234.993-5.5,2.19-5.5s2.19,2.266,2.19,5.5m3.158,0c0-5.017-2.114-8.353-5.348-8.353s-5.348,3.336-5.348,8.353,2.114,8.353,5.348,8.353,5.348-3.336,5.348-8.353" transform="translate(-390.63 -203.461)" fill="rgba(0,0,0,0.35)"/>
  <path id="Path_34" data-name="Path 34" d="M368.592,242.279l-.28-5.475c-.051-.866-.076-1.783-.051-2.776h-.051c-.2.967-.484,1.935-.738,2.8l-1.656,5.476h-1.808l-1.681-5.476c-.229-.763-.535-1.833-.738-2.8h-.051a24.032,24.032,0,0,1-.051,2.776l-.33,5.475H358.33l.941-16.247h2.419l2.215,7.284c.331,1.12.688,2.469.968,3.666h.051c.28-1.2.585-2.5.943-3.666l2.215-7.284h2.394l.968,16.247Z" transform="translate(-316.445 -204.694)" fill="rgba(0,0,0,0.35)"/>
  <path id="Path_35" data-name="Path 35" d="M300.6,234.154c0,3.82-1.2,5.45-2.572,5.45H297.5V228.7h.535c1.375,0,2.572,1.63,2.572,5.449m3.158,0c0-5.526-2.47-8.123-5.475-8.123h-3.8v16.247h3.8c3,0,5.475-2.6,5.475-8.124" transform="translate(-262.628 -204.693)" fill="rgba(0,0,0,0.35)"/>
  <path id="Path_36" data-name="Path 36" d="M230.546,241.606a7.434,7.434,0,0,1-4.562-1.521l1.151-2.429a5.5,5.5,0,0,0,3.28,1.252c1.043,0,2.216-.441,2.216-1.669,0-2.135-3.476-2.5-5.214-4.735a4.7,4.7,0,0,1,3.953-7.484,6.68,6.68,0,0,1,3.607.981l-.043,2.9a6.475,6.475,0,0,0-3.41-1.178c-1.064,0-1.89.54-1.89,1.473,0,2.8,6.147,2.552,6.147,7.631,0,2.944-2.3,4.785-5.235,4.785" transform="translate(-204.875 -203.84)" fill="rgba(0,0,0,0.35)"/>
  <path id="Path_37" data-name="Path 37" d="M261.657,92.742v4.8h-3.739v-4.8h-3.791v13.745h3.791V101.33h3.739v5.157h3.791V92.742Z" transform="translate(-228.6 -92.329)" fill="rgba(0,0,0,0.35)"/>
  <path id="Path_38" data-name="Path 38" d="M333.039,92.742v13.745h7.97v-3.546H336.83v-10.2Z" transform="translate(-295.124 -92.329)" fill="rgba(0,0,0,0.35)"/>
  <path id="Path_39" data-name="Path 39" d="M390.605,92.742v13.745h7.659v-3.159H394.4v-2.153h3.868V98.016H394.4V95.9h3.868V92.742Z" transform="translate(-343.653 -92.329)" fill="rgba(0,0,0,0.35)"/>
  <path id="Path_40" data-name="Path 40" d="M449.985,95.92V98.6c.623-.028,1.341.108,1.805-.379a1.264,1.264,0,0,0,.026-1.874,2.7,2.7,0,0,0-1.831-.429m-3.791-3.178h3.791a12.987,12.987,0,0,1,2.088.194,4.35,4.35,0,0,1,3.352,5.03,5.243,5.243,0,0,1-2.269,3.08c1.317,1.8,2.605,3.621,3.894,5.441h-4.074c-1.03-1.325-2.012-2.7-2.992-4.051v4.051h-3.791V92.742Z" transform="translate(-390.515 -92.329)" fill="rgba(0,0,0,0.35)"/>
  <path id="Path_41" data-name="Path 41" d="M166.086,93.747a3.537,3.537,0,1,1-3.177,3.518,3.361,3.361,0,0,1,3.177-3.518m7.1,3.518a7.1,7.1,0,1,0-7.1,7.157,7.127,7.127,0,0,0,7.1-7.157" transform="translate(-148.398 -90.109)" fill="rgba(0,0,0,0.35)"/>
  <path id="Path_42" data-name="Path 42" d="M103.735,92.751c-1.787,2.189-3.608,4.351-5.389,6.545l6.189,7.195h-5l-4.2-4.925v4.924H91.538V92.746h3.791V96.8l3.593-4.051Z" transform="translate(-91.536 -92.332)" fill="rgba(0,0,0,0.35)"/>
  <rect id="Rectangle_64" data-name="Rectangle 64" width="66.534" height="0.724" transform="translate(0.003 17.431)" fill="rgba(0,0,0,0.35)"/>
  <path id="Path_43" data-name="Path 43" d="M91.523,242.124H107.8V225.848H91.523Zm12.728-3.013a4.257,4.257,0,0,1-2.714,1.164H93.975v-3.054h11.343a4.876,4.876,0,0,1-1.067,1.89m-6.3-3.393a4.265,4.265,0,0,1-2.716-1.163,4.873,4.873,0,0,1-1.065-1.891h7.368a4.257,4.257,0,0,1,2.714,1.164,4.874,4.874,0,0,1,1.067,1.889Zm7.368-4.6H93.975a4.856,4.856,0,0,1,1.067-1.891,4.264,4.264,0,0,1,2.714-1.163h7.562Z" transform="translate(-91.523 -204.539)" fill="rgba(0,0,0,0.35)"/>
</svg>
