<svg xmlns="http://www.w3.org/2000/svg" width="83.691" height="20.425" viewBox="0 0 83.691 20.425">
  <path id="Path_44" data-name="Path 44" d="M104.5,157.387l-.413-1.024v1.024h-.241v-1.473h.291l.457,1.132.452-1.132h.283v1.473h-.244v-1.024l-.4,1.024Zm-2.045-1.473h1.25v.221h-.5v1.252h-.254v-1.252h-.5v-.221ZM90.071,157.4h2.283v-9.672H90.071V157.4Zm11.155-9.672-2.356,6.5-2.357-6.5h-2.55l3.719,9.672h2.307l3.719-9.672ZM79.89,149.783h3.018V157.4h2.283v-7.613h3.017v-2.059H79.89v2.059Zm-5.008,2.575h-1.9v-2.575h1.9a1.288,1.288,0,1,1,0,2.575m3.689-1.375a3.288,3.288,0,0,0-3.317-3.258H70.7V157.4h2.284v-3.086h1.034l2.156,3.086h2.68l-2.45-3.361a3.275,3.275,0,0,0,2.164-3.053M61.027,157.4h7.308v-2.045H63.311v-1.887h4.137v-1.952H63.311v-1.729h5.024v-2.059H61.027Zm-6.475-3.176-2.356-6.5h-2.55l3.719,9.672h2.306l3.72-9.672H56.909Zm-12.117-6.5-9.814,9.638,4.932,4.844a10.767,10.767,0,0,0,6.052-9.638,10.588,10.588,0,0,0-1.17-4.844m-20.8,4.844a10.766,10.766,0,0,0,6.052,9.638l4.932-4.844-9.813-9.638a10.579,10.579,0,0,0-1.17,4.844m10.983-.652,4.268-4.192h5.546a11.074,11.074,0,0,0-19.627,0h5.546Z" transform="translate(-21.638 -141.782)" fill="rgba(0,0,0,0.35)"/>
</svg>
