<svg xmlns="http://www.w3.org/2000/svg" width="151.02" height="36.857" viewBox="0 0 151.02 36.857">
  <path id="Path_2741" data-name="Path 2741" d="M171.164,169.941l-.745-1.847v1.847h-.435v-2.657h.524l.824,2.043.815-2.043h.511v2.657h-.441v-1.847l-.726,1.847Zm-3.691-2.657h2.255v.4h-.9v2.26h-.457v-2.26h-.9v-.4Zm-22.349,2.675h4.12V152.506h-4.12v17.453Zm20.129-17.453L161,164.228l-4.253-11.722h-4.6l6.711,17.453h4.163l6.712-17.453Zm-38.5,3.715H132.2v13.738h4.12V156.221h5.444v-3.715H126.753v3.715Zm-9.037,4.646H114.3v-4.646h3.42a2.324,2.324,0,1,1,0,4.646m6.656-2.481a5.933,5.933,0,0,0-5.985-5.88h-8.212V169.96H114.3v-5.569h1.866l3.891,5.569h4.835l-4.42-6.065a5.91,5.91,0,0,0,3.9-5.509M92.715,169.959H105.9v-3.69H96.836v-3.406H104.3V159.34H96.836v-3.119H105.9v-3.715H92.715Zm-11.684-5.731-4.252-11.722h-4.6l6.712,17.453h4.162l6.712-17.453H85.284ZM59.166,152.506,41.457,169.9l8.9,8.741a19.429,19.429,0,0,0,10.921-17.392,19.106,19.106,0,0,0-2.111-8.741m-37.528,8.741a19.428,19.428,0,0,0,10.921,17.392l8.9-8.741L23.749,152.506a19.089,19.089,0,0,0-2.111,8.741m19.819-1.177,7.7-7.564H59.166a19.983,19.983,0,0,0-35.417,0H33.756Z" transform="translate(-21.638 -141.782)" fill="#fff"/>
</svg>
